module listner

go 1.17

require google.golang.org/genproto v0.0.0-20220107163113-42d7afdf6368

require (
	cloud.google.com/go v0.97.0 // indirect
	github.com/golang/groupcache v0.0.0-20200121045136-8c9f03a8e57e // indirect
	github.com/google/go-cmp v0.5.6 // indirect
	github.com/googleapis/gax-go/v2 v2.1.1 // indirect
	go.opencensus.io v0.23.0 // indirect
	golang.org/x/oauth2 v0.0.0-20211005180243-6b3c2da341f1 // indirect
	golang.org/x/sync v0.0.0-20210220032951-036812b2e83c // indirect
	google.golang.org/api v0.58.0 // indirect
	google.golang.org/appengine v1.6.7 // indirect
)

require (
	cloud.google.com/go/pubsub v1.17.1
	github.com/golang/protobuf v1.5.2 // indirect
	golang.org/x/net v0.0.0-20210503060351-7fd8e65b6420 // indirect
	golang.org/x/sys v0.0.0-20210917161153-d61c044b1678 // indirect
	golang.org/x/text v0.3.6 // indirect
	google.golang.org/grpc v1.40.0 // indirect
	google.golang.org/protobuf v1.27.1 // indirect
)
